No,Age,Male,Female
1,Early Neonatal,7449005.2,5844795.6
2,Late Neonatal,1462604.2,1379899.9
3,Post Neonatal,1947732.2,2165699.2
4,1 to 4,1594530,1872236.1
5,5 to 9,954187.9,866478.9
6,10 to 14,841989.6,744114.4
7,15 to 19,1681788.6,1690751.1
8,20 to 24,2544831.4,1992292.3
9,25 to 29,2685823.8,1726756.5
10,30 to 34,2714530.8,1522287.9
11,35 to 39,3110692.8,1566254.3
12,40 to 44,3396343,1667256.5
13,45 to 49,4005913.7,2066038.2
14,50 to 54,4917029.3,2638275.4
15,55 to 59,5783139,3528106
16,60 to 64,6431125.1,4590623.5
17,65 to 69,7338677,5920335.5
18,70 to 74,7379719.5,6881226.8
19,75 to 79,6410273.8,6109813.4
20,80 plus,8529529.8,9753434.9
